RUS    1233    Майкоп
RUS    822    Горно-Алтайск
RUS    274    Барнаул
RUS    286    Благовещенск
RUS    15345    Симферополь
RUS    402    Архангельск
RUS    432    Астрахань
RUS    256    Уфа
RUS    337    Белгород
RUS    220    Брянск
RUS    230    Улан-Удэ
RUS    94    Владимир
RUS    426    Волгоград
RUS    246    Вологда
RUS    506    Воронеж
RUS    442    Махачкала
RUS    914    Биробиджан
RUS    231    Чита
RUS    164    Иваново
RUS    1736    Магас
RUS    281    Иркутск
RUS    1081    Нальчик
RUS    152    Калининград
RUS    207    Элиста
RUS    142    Калуга
RUS    285    Петропавловск-Камчатский
RUS    1085    Черкесск
RUS    450    Петрозаводск
RUS    272    Кемерово
RUS    415    Киров
RUS    404    Сыктывкар
RUS    165    Кострома
RUS    435    Краснодар
RUS    278    Красноярск
RUS    93    Курган
RUS    699    Курск
RUS    320    Липецк
RUS    314    Магадан
RUS    141    Йошкар-Ола
RUS    417    Саранск
RUS    44    Москва
RUS    265    Мурманск
RUS    943    Нарьян-Мар
RUS    414    Нижний Новгород
RUS    139    Великий Новгород
RUS    270    Новосибирск
RUS    268    Омск
RUS    261    Оренбург
RUS    149    Орел
RUS    504    Пенза
RUS    248    Пермь
RUS    288    Владивосток
RUS    393    Псков
RUS    438    Ростов-на-Дону
RUS    159    Рязань
RUS    430    Самара
RUS    137    Санкт-Петербург
RUS    428    Саратов
RUS    283    Якутск
RUS    473    Южно-Сахалинск
RUS    250    Екатеринбург
RUS    1082    Владикавказ
RUS    395    Смоленск
RUS    439    Ставрополь
RUS    298    Тамбов
RUS    424    Казань
RUS    245    Тверь
RUS    269    Томск
RUS    150    Тула
RUS    871    Кызыл
RUS    252    Тюмень
RUS    224    Ижевск
RUS    422    Ульяновск
RUS    287    Хабаровск
RUS    823    Абакан
RUS    625    Ханты-Мансийск
RUS    259    Челябинск
RUS    441    Грозный
RUS    419    Чебоксары
RUS    2381    Анадырь
RUS    677    Салехард
RUS    146    Ярославль
UKR    14902    Глухов
UKR    965    Украина
UKR    6178    Винница, Винницкая обл.
UKR    8817    Луцк, Волынская обл.
UKR    6953    Днепропетровск, Днепропетровская обл.
UKR    6979    Донецк, Донецкая обл.
UKR    7163    Житомир, Житомирская обл.
UKR    11847    Ужгород, Закарпатская обл.
UKR    7207    Запорожье, Запорожская обл.
UKR    7286    Ивано-Франковск, Ивано-Франковская обл.
UKR    7870    Киев, Киевская обл.
UKR    7917    Кировоград, Кировоградская обл.
UKR    8789    Луганск, Луганская обл.
UKR    8819    Львов, Львовская обл.
UKR    9521    Николаев, Николаевская обл.
UKR    9816    Одесса, Одесская обл.
UKR    10310    Полтава, Полтавская обл.
UKR    10641    Ровно, Ровенская обл.
UKR    11445    Сумы, Сумская обл.
UKR    11606    Тернополь, Тернопольская обл.
UKR    12262    Харьков, Харьковская обл.
UKR    12323    Херсон, Херсонская обл.
UKR    12370    Хмельницкий, Хмельницкая обл.
UKR    12551    Черкассы, Черкасская обл.
UKR    12552    Чернигов, Черниговская обл.
UKR    12556    Черновцы, Черновицкая обл.
BLR    2112    Белоруссия (Беларусь)
BLR    5624    Брест, Брестская обл.
BLR    6215    Витебск, Витебская обл.
BLR    6539    Гомель, Гомельская обл.
BLR    6668    Гродно, Гродненская обл.
BLR    9220    Минск, Минская обл.
BLR    9263    Могилев, Могилевская обл.
KAZ    13981    23мкр
KAZ    14000    Аблакетка
KAZ    14001    Авангард
KAZ    14002    Акбулак
KAZ    14003    Аккистау
KAZ    14005    Аккульск
KAZ    14006    Аккум
KAZ    14007    АКПО
KAZ    14008    Аксай
KAZ    14009    Аксукент
KAZ    13435    Актау, Мангистауская  обл
KAZ    14010    Акшакур
KAZ    14011    Алгабас
KAZ    14012    Алтынсарина
KAZ    14013    Асса
KAZ    14014    Аулиеколь
KAZ    14015    Ахмирово
KAZ    14016    Аэропорт
KAZ    14017    Б.Момыш улы
KAZ    14018    Бадам
KAZ    14019    Бадамша
KAZ    14020    Баженово
KAZ    14021    Байтанат
KAZ    14022    Балпык-би
KAZ    14023    Белокаменка
KAZ    14024    Белькуль
KAZ    14025    Береке
KAZ    14026    Берлестык
KAZ    14027    Бирлик
KAZ    14028    Бишкуль
KAZ    14029    Бобровка
KAZ    14030    Большенарым
KAZ    14031    Булак
KAZ    14032    Васильковский ГОК
KAZ    14033    Водный
KAZ    14034    Возвышенка
KAZ    14035    Володаровка
KAZ    14036    Восточная промзона
KAZ    14037    Выдриха
KAZ    14038    Гагарина
KAZ    14039    Глуховка
KAZ    14040    Горнятский
KAZ    14041    ГПП-500
KAZ    14042    Гранитный
KAZ    14043    Грэсс
KAZ    14044    Дарьинск
KAZ    14045    Даулет
KAZ    14046    Денисовка
KAZ    14047    Деркул
KAZ    14048    Долинка
KAZ    14049    Достык
KAZ    14050    Егиндыколь
KAZ    14051    Енбек
KAZ    14052    Енбек-Актау
KAZ    14053    Жазык
KAZ    14054    Жайрем
KAZ    14055    Жалагаш
KAZ    14056    Жамбыл
KAZ    14057    Жанаозен
KAZ    14058    Жанаул
KAZ    14059    Жангылды
KAZ    14060    Жанокорган
KAZ    14061    Жансугурова
KAZ    14062    Жаркент
KAZ    14063    Жарколь
KAZ    14064    Жаркын
KAZ    14065    Жезды
KAZ    14066    Желаево
KAZ    14067    Жетысай
KAZ    14068    Жетысу
KAZ    14069    Жиланды
KAZ    13957    Житикара
KAZ    14070    Жолпак Тобе
KAZ    14071    Жосалы
KAZ    14072    Жулдыз
KAZ    14073    Заречный
KAZ    14074    Затоболовка
KAZ    14075    Зачаганский
KAZ    14076    Ивановка
KAZ    14077    Изумрудный
KAZ    14078    Ильичевка
KAZ    14079    Интернациональный
KAZ    14080    Иргели
KAZ    276    Казахстан
KAZ    14081    Казахстанский Элект.завод
KAZ    14082    Казгермунай
KAZ    14083    Казгородок
KAZ    14084    Казыгурт
KAZ    14085    Каменка
KAZ    14086    Камысты
KAZ    14087    Кандыагаш
KAZ    14088    Карабас
KAZ    14089    Караколь
KAZ    14090    Караоткель
KAZ    14091    Карасу
KAZ    14092    Каратобе
KAZ    14093    Каратольск
KAZ    14094    Караузек
KAZ    14095    Карлуга
KAZ    14096    Карсакпай
KAZ    14097    Качиры
KAZ    14098    Кенесары
KAZ    14099    Кик
KAZ    14100    Кирпичный
KAZ    14101    Кишкенеколь
KAZ    14102    Киялы
KAZ    14103    Коктерек
KAZ    14104    Коктобе
KAZ    14105    Кокшетау-2
KAZ    14106    Комсомольский
KAZ    14107    Комсомольское
KAZ    14108    Конзовод
KAZ    14109    Кордай
KAZ    14110    Косчагыл
KAZ    14111    Кошкар
KAZ    14112    Коштак
KAZ    14113    Кощи
KAZ    14114    Красина
KAZ    14115    Крупское
KAZ    14116    Кулан
KAZ    14117    Курык
KAZ    14118    Кушокы
KAZ    14120    Кызыл-Жар
KAZ    14119    Кызыл-Тобе
KAZ    14121    Кызылжарма
KAZ    14125    Мангыстау
KAZ    14126    Меновное
KAZ    14127    Металлург
KAZ    14128    Микрорайоны
KAZ    14129    Мичурина
KAZ    14130    Мичурино
KAZ    14131    Мойынты
KAZ    14132    Молодежный
KAZ    14133    Мунайши
KAZ    14134    Мупры
KAZ    14135    Мурат
KAZ    14136    Мынарал
KAZ    14137    Мясокомбинат
KAZ    14138    Наурзум
KAZ    14139    Неженка
KAZ    14140    Новая Бухтарма
KAZ    14141    Новая Сорга
KAZ    14142    Новоджамбул
KAZ    14143    Новоишимский
KAZ    14144    Обсерватория
KAZ    14145    Озерки
KAZ    14146    Опытное Поле
KAZ    14147    Ораимбек
KAZ    14148    Отеген Батыра
KAZ    14149    Переметное
KAZ    14150    Петерфельд
KAZ    14151    Подстанция КЕГОК
KAZ    14152    Подстепное
KAZ    14153    Пойма
KAZ    14154    Половинки
KAZ    14155    Прапорщиково
KAZ    14156    Прибрежное
KAZ    14157    Пригородный
KAZ    14158    Прииртышское
KAZ    14159    Приозерный
KAZ    14160    Приречное
KAZ    14161    Промзона
KAZ    14162    Промышленный
KAZ    14163    Птицефабрика
KAZ    14164    Район второго кирпичного завода
KAZ    14165    Ремизовка
KAZ    16880    Розовка с, Павлодарская обл
KAZ    14166    Садовая
KAZ    14167    Сайрам
KAZ    14168    Сайхин
KAZ    14169    Саксаульское
KAZ    14170    Сарнагай
KAZ    14171    Сарыбулак
KAZ    14172    Сарыкамыс
KAZ    14173    Сарыкемер
KAZ    14174    Сарыколь
KAZ    14175    Сат Оперейтинг
KAZ    14176    Сатпаев
KAZ    14177    Саумалколь
KAZ    14178    Сах.поселок
KAZ    14179    Сев.Восточный
KAZ    14180    Север промзона
KAZ    14181    Секисовка
KAZ    14182    Селикатный
KAZ    14183    Серебряково
KAZ    14184    Симферополь
KAZ    14185    Смирново
KAZ    14187    СЭЗ
KAZ    14188    Тайынша
KAZ    14189    Талица
KAZ    14190    Тарановка
KAZ    14191    Тарханка
KAZ    14193    Тасай-Кызылсай
KAZ    14192    Таскала
KAZ    14194    ТАТЭК
KAZ    14195    Таукент
KAZ    14196    Тельмана
KAZ    14197    Темир
KAZ    14198    Теректи
KAZ    14200    Тимирязево
KAZ    14201    Титова
KAZ    14203    Торетам
KAZ    14204    Торткудук
KAZ    14205    Троицк
KAZ    14206    Тулпар
KAZ    14207    Тургень
KAZ    14208    ТЭЦ р.Урал
KAZ    14209    Тюлькубас
KAZ    14210    Узунколь
KAZ    14211    Умирзак
KAZ    14212    Успенка
KAZ    14213    Фабричный
KAZ    14214    Федеровка
KAZ    14215    Хантау
KAZ    14216    Хим.пром
KAZ    14217    Хобда
KAZ    14218    Хоргос
KAZ    14219    Чапаевка
KAZ    14220    Чапаево
KAZ    14221    Чемолган
KAZ    14222    Чингирлау
KAZ    14223    Чубары
KAZ    14224    Чумыр
KAZ    14225    Шалкар
KAZ    14226    Шанхай
KAZ    14227    Шахан
KAZ    14228    Шетпе
KAZ    14230    Шиели
KAZ    14231    Шипово
KAZ    14232    Шоптыколь
KAZ    14233    Шортадинский
KAZ    14234    Шу
KAZ    14235    Шубарши
KAZ    14236    Щапово
KAZ    14237    Ынтымак
KAZ    14238    Южный
KAZ    11387    Степногорск, Акмолинская обл.
KAZ    4756    Алматы
KAZ    11903    Усть-Каменогорск, Восточно-Казахстанская обл.
KAZ    6883    Джезказган, Джезказганская обл.
KAZ    11518    Тараз, Жамбылская обл
KAZ    4994    Атырау (Гурьев), Атырауская обл.
KAZ    7669    Караганда, Карагандинская обл.
KAZ    7861    Кзыл-Орда, Кзыл-Ординская обл.
KAZ    8063    Кокчетав, Кокчетавская обл.
KAZ    13982    Айтеке-Би
KAZ    4660    Ак-Коль, Казахстан
KAZ    4693    Актобе, Казахстан
KAZ    4699    Акший, Казахстан
KAZ    4950    Аршалы, Казахстан
KAZ    4975    Атбасар, Казахстан
KAZ    4994    Атырау (Гурьев), Атырауская обл.
KAZ    5071    Байконур, Казахстан
KAZ    5110    Балкашино, Казахстан
KAZ    7144    Жезказган, Казахстан
KAZ    8199    Костанай
KAZ    8376    Курчатов, Казахстан
KAZ    9066    Махамбет, Казахстан
KAZ    11883    Уральск, Казахстан
KAZ    12787    Шымкент, Казахстан